{
  "states": {
    "Gujranwala Colony": {
      "blocks": [
        {
          "link": "https://drive.google.com/open?id=1azsL-hpATFvpxA2H6vE5W7iIxT2XXyOl",
          "name": "karan joshi",
          "lastSeen": "Model Town II\n",
          "lastSeenDate": "12/2/2020",
          "lastSeenTime": "3:30:00 PM",
          "gender": "Male"
        }
      ],
      "coordinates": {
        "latitude": "28.7121",
        "longitude": "77.206"
      }
    }
  },
  "totalBlocks": 24
}